CCTV,#genre#
CCTV1,http://39.134.24.162/dbiptv.sn.chinamobile.com/PLTV/88888888/224/3221225804/1.m3u8
CCTV2,http://39.134.24.162/dbiptv.sn.chinamobile.com/PLTV/88888888/224/3221226195/1.m3u8
CCTV2,http://39.134.24.162/dbiptv.sn.chinamobile.com/PLTV/88888888/224/3221226224/1.m3u8
CCTV3,http://39.134.66.110/PLTV/88888888/224/3221225799/index.m3u8
CCTV4,http://39.134.24.162/dbiptv.sn.chinamobile.com/PLTV/88888888/224/3221226191/1.m3u8
CCTV5,http://39.134.24.162/dbiptv.sn.chinamobile.com/PLTV/88888888/224/3221226395/1.m3u8
CCTV5,http://39.134.24.166/dbiptv.sn.chinamobile.com/PLTV/88888888/224/3221226395/1.m3u8
CCTV5+,http://39.134.24.166/dbiptv.sn.chinamobile.com/PLTV/88888888/224/3221225761/1.m3u8
CCTV5+,http://39.134.24.162/dbiptv.sn.chinamobile.com/PLTV/88888888/224/3221225761/1.m3u8
CCTV6,http://39.134.24.166/dbiptv.sn.chinamobile.com/PLTV/88888888/224/3221226393/1.m3u8
CCTV7,http://39.134.24.166/dbiptv.sn.chinamobile.com/PLTV/88888888/224/3221226192/1.m3u8
CCTV8,http://39.134.24.162/dbiptv.sn.chinamobile.com/PLTV/88888888/224/3221226012/1.m3u8
CCTV8,http://39.134.24.162/dbiptv.sn.chinamobile.com/PLTV/88888888/224/3221226391/1.m3u8
CCTV8,http://39.134.24.166/dbiptv.sn.chinamobile.com/PLTV/88888888/224/3221226012/1.m3u8
CCTV8,http://39.134.24.166/dbiptv.sn.chinamobile.com/PLTV/88888888/224/3221226391/1.m3u8
CCTV9,http://39.134.24.162/dbiptv.sn.chinamobile.com/PLTV/88888888/224/3221226197/1.m3u8
CCTV9,http://39.134.24.166/dbiptv.sn.chinamobile.com/PLTV/88888888/224/3221226197/1.m3u8
CCTV10,http://39.134.24.162/dbiptv.sn.chinamobile.com/PLTV/88888888/224/3221226189/1.m3u8
CCTV11,http://219.140.56.34:3333/tsfile/live/1011_1.m3u8
CCTV12,http://dbiptv.sn.chinamobile.com/PLTV/88888890/224/3221226190/index.m3u8
CCTV13,http://39.134.24.162/dbiptv.sn.chinamobile.com/PLTV/88888888/224/3221226233/1.m3u8
CCTV13,http://39.134.24.166/dbiptv.sn.chinamobile.com/PLTV/88888888/224/3221226233/1.m3u8
CCTV14,http://39.134.24.166/dbiptv.sn.chinamobile.com/PLTV/88888888/224/3221226193/1.m3u8
CCTV15,http://39.134.24.162/dbiptv.sn.chinamobile.com/PLTV/88888888/224/3221225785/1.m3u8
CCTV16,http://39.134.24.162/dbiptv.sn.chinamobile.com/PLTV/88888888/224/3221226921/1.m3u8
CCTV1,http://dbiptv.sn.chinamobile.com/PLTV/88888890/224/3221226231/index.m3u8
CCTV2,http://dbiptv.sn.chinamobile.com/PLTV/88888890/224/3221226195/index.m3u8
CCTV2,http://dbiptv.sn.chinamobile.com/PLTV/88888890/224/3221226224/index.m3u8
CCTV4,http://dbiptv.sn.chinamobile.com/PLTV/88888890/224/3221226191/index.m3u8
CCTV4,http://dbiptv.sn.chinamobile.com/PLTV/88888890/224/3221226223/index.m3u8
CCTV5,http://39.134.66.110/PLTV/88888888/224/3221225818/index.m3u8
CCTV5+,http://dbiptv.sn.chinamobile.com/PLTV/88888890/224/3221226221/index.m3u8
CCTV6,http://39.134.66.110/PLTV/88888888/224/3221225814/index.m3u8
CCTV7,http://dbiptv.sn.chinamobile.com/PLTV/88888890/224/3221226192/index.m3u8
CCTV8,http://39.134.66.110/PLTV/88888888/224/3221225795/index.m3u8
CCTV9,http://dbiptv.sn.chinamobile.com/PLTV/88888890/224/3221226197/index.m3u8
CCTV10,http://dbiptv.sn.chinamobile.com/PLTV/88888890/224/3221226189/index.m3u8
CCTV13,http://39.134.67.99/PLTV/88888888/224/3221225812/index.m3u8
CCTV13,http://39.135.138.60:18890/PLTV/88888910/224/3221225638/index.m3u8
CCTV14,http://39.134.66.66/PLTV/88888888/224/3221225674/index.m3u8
CCTV15,http://39.135.138.60:18890/PLTV/88888910/224/3221225641/index.m3u8
CCTV16,http://39.135.138.60:18890/TVOD/88888910/224/3221226230/index.m3u8
CCTV16,http://39.135.138.60:18890/TVOD/88888910/224/3221226233/index.m3u8
CCTV11,http://dbiptv.sn.chinamobile.com/PLTV/88888890/224/3221226240/index.m3u8
CCTV13,http://dbiptv.sn.chinamobile.com/PLTV/88888890/224/3221226233/index.m3u8
CCTV14,http://dbiptv.sn.chinamobile.com/PLTV/88888890/224/3221226193/index.m3u8
CCTV17,http://dbiptv.sn.chinamobile.com/PLTV/88888890/224/3221226198/index.m3u8
CCTV1,http://39.134.66.110/PLTV/88888888/224/3221225816/index.m3u8
CCTV5+,http://39.134.66.110/PLTV/88888888/224/3221225507/index.m3u8
CCTV7,http://39.134.66.110/PLTV/88888888/224/3221225671/index.m3u8
CCTV9,http://39.134.66.110/PLTV/88888888/224/3221225676/index.m3u8
CCTV10,http://39.134.66.110/PLTV/88888888/224/3221225677/index.m3u8
CCTV12,http://39.134.66.110/PLTV/88888888/224/3221225669/index.m3u8
CCTV14,http://39.134.66.110/PLTV/88888888/224/3221225674/index.m3u8
CCTV16,http://39.134.66.110/PLTV/88888888/224/3221225893/index.m3u8
CCTV17,http://39.134.66.110/PLTV/88888888/224/3221225708/index.m3u8
CCTV1,http://39.134.66.48/PLTV/88888888/224/3221225816/index.m3u8
CCTV1,http://39.134.67.226/PLTV/88888888/224/3221225816/index.m3u8
CCTV1,http://39.134.65.179/PLTV/88888888/224/3221225816/index.m3u8
CCTV1,http://39.134.65.181/PLTV/88888888/224/3221225816/index.m3u8
CCTV3,http://39.134.66.46/PLTV/88888888/224/3221225799/index.m3u8
CCTV3,http://39.134.67.226/PLTV/88888888/224/3221225799/index.m3u8
CCTV3,http://39.134.65.179/PLTV/88888888/224/3221225799/index.m3u8
CCTV3,http://39.134.65.181/PLTV/88888888/224/3221225799/index.m3u8
CCTV3,http://39.134.65.173/PLTV/88888888/224/3221225799/index.m3u8
CCTV3,http://39.134.65.183/PLTV/88888888/224/3221225799/index.m3u8
CCTV3,http://39.134.65.175/PLTV/88888888/224/3221225799/index.m3u8
CCTV5,http://39.134.67.226/PLTV/88888888/224/3221225818/index.m3u8
CCTV5,http://39.134.65.179/PLTV/88888888/224/3221225818/index.m3u8
CCTV5,http://39.134.65.181/PLTV/88888888/224/3221225818/index.m3u8
CCTV5,http://39.134.65.173/PLTV/88888888/224/3221225818/index.m3u8
CCTV5+,http://39.134.66.66/PLTV/88888888/224/3221225507/index.m3u8
CCTV5+,http://39.134.65.181/PLTV/88888888/224/3221225507/index.m3u8
CCTV5+,http://39.134.65.173/PLTV/88888888/224/3221225507/index.m3u8
CCTV5+,http://39.134.65.183/PLTV/88888888/224/3221225507/index.m3u8
CCTV5+,http://39.134.65.175/PLTV/88888888/224/3221225507/index.m3u8
CCTV6,http://39.134.65.181/PLTV/88888888/224/3221225814/index.m3u8
CCTV6,http://39.134.65.173/PLTV/88888888/224/3221225814/index.m3u8
CCTV6,http://39.134.65.183/PLTV/88888888/224/3221225814/index.m3u8
CCTV6,http://39.134.65.175/PLTV/88888888/224/3221225814/index.m3u8
CCTV6,http://39.134.65.177/PLTV/88888888/224/3221225814/index.m3u8
CCTV7,http://39.134.65.179/PLTV/88888888/224/3221225671/index.m3u8
CCTV7,http://39.134.65.164/PLTV/88888888/224/3221225671/index.m3u8
CCTV7,http://39.134.65.181/PLTV/88888888/224/3221225671/index.m3u8
CCTV7,http://39.134.65.173/PLTV/88888888/224/3221225671/index.m3u8
CCTV7,http://39.134.65.183/PLTV/88888888/224/3221225671/index.m3u8
CCTV7,http://39.134.66.2/PLTV/88888888/224/3221225671/index.m3u8
CCTV8,http://39.134.65.181/PLTV/88888888/224/3221225795/index.m3u8
CCTV8,http://39.134.65.173/PLTV/88888888/224/3221225795/index.m3u8
CCTV8,http://39.134.65.183/PLTV/88888888/224/3221225795/index.m3u8
CCTV8,http://39.134.65.175/PLTV/88888888/224/3221225795/index.m3u8
CCTV8,http://39.134.65.177/PLTV/88888888/224/3221225795/index.m3u8
CCTV9,http://39.134.66.46/PLTV/88888888/224/3221225676/index.m3u8
CCTV9,http://39.134.65.179/PLTV/88888888/224/3221225676/index.m3u8
CCTV9,http://39.134.65.181/PLTV/88888888/224/3221225676/index.m3u8
CCTV9,http://39.134.65.166/PLTV/88888888/224/3221225676/index.m3u8
CCTV9,http://39.134.65.183/PLTV/88888888/224/3221225676/index.m3u8
CCTV9,http://39.134.65.173/PLTV/88888888/224/3221225676/index.m3u8
CCTV10,http://39.134.65.179/PLTV/88888888/224/3221225677/index.m3u8
CCTV10,http://39.134.65.164/PLTV/88888888/224/3221225677/index.m3u8
CCTV10,http://39.134.65.166/PLTV/88888888/224/3221225677/index.m3u8
CCTV10,http://39.134.65.181/PLTV/88888888/224/3221225677/index.m3u8
CCTV10,http://39.134.65.183/PLTV/88888888/224/3221225677/index.m3u8
CCTV10,http://39.134.66.66/PLTV/88888888/224/3221225677/index.m3u8
CCTV12,http://39.134.66.66/PLTV/88888888/224/3221225669/index.m3u8
CCTV12,http://39.134.65.179/PLTV/88888888/224/3221225669/index.m3u8
CCTV12,http://39.134.65.164/PLTV/88888888/224/3221225669/index.m3u8
CCTV12,http://39.134.65.181/PLTV/88888888/224/3221225669/index.m3u8
CCTV12,http://39.134.65.166/PLTV/88888888/224/3221225669/index.m3u8
CCTV12,http://39.134.65.173/PLTV/88888888/224/3221225669/index.m3u8
CCTV14,http://39.134.65.179/PLTV/88888888/224/3221225674/index.m3u8
CCTV14,http://39.134.65.164/PLTV/88888888/224/3221225674/index.m3u8
CCTV14,http://39.134.65.181/PLTV/88888888/224/3221225674/index.m3u8
CCTV14,http://39.134.65.183/PLTV/88888888/224/3221225674/index.m3u8
CCTV14,http://39.134.65.173/PLTV/88888888/224/3221225674/index.m3u8
CCTV17,http://39.134.66.46/PLTV/88888888/224/3221225708/index.m3u8
CCTV17,http://39.134.65.181/PLTV/88888888/224/3221225708/index.m3u8
CCTV17,http://39.134.65.183/PLTV/88888888/224/3221225708/index.m3u8
CCTV2,http://219.140.56.34:3333/tsfile/live/0002_1.m3u8
CCTV4,http://219.140.56.34:3333/tsfile/live/1004_1.m3u8
CETV3,http://dbiptv.sn.chinamobile.com/PLTV/88888890/224/3221226226/index.m3u8
CETV4,http://dbiptv.sn.chinamobile.com/PLTV/88888890/224/3221226225/index.m3u8
风云剧场,http://42.176.185.28:9901/tsfile/live/1031_1.m3u8
风云音乐,http://42.176.185.28:9901/tsfile/live/1024_1.m3u8
女性时尚,http://dbiptv.sn.chinamobile.com/PLTV/88888890/224/3221226237/index.m3u8
发现之旅,http://dbiptv.sn.chinamobile.com/PLTV/88888890/224/3221226235/index.m3u8
老故事,http://dbiptv.sn.chinamobile.com/PLTV/88888890/224/3221226236/index.m3u8
卫视,#genre#
北京卫视,http://39.134.24.162/dbiptv.sn.chinamobile.com/PLTV/88888890/224/3221225796/index.m3u8?
海南卫视,http://39.134.24.162/dbiptv.sn.chinamobile.com/PLTV/88888890/224/3221225769/index.m3u8?
南方卫视,http://39.134.24.162/dbiptv.sn.chinamobile.com/PLTV/88888890/224/3221226218/index.m3u8?
农林卫视,http://39.134.24.162/dbiptv.sn.chinamobile.com/PLTV/88888890/224/3221226229/index.m3u8?
黑龙江卫视,http://39.134.24.162/dbiptv.sn.chinamobile.com/PLTV/88888890/224/3221225802/index.m3u8
西藏卫视,http://39.134.24.162/dbiptv.sn.chinamobile.com/PLTV/88888890/224/3221226212/index.m3u8
大湾区卫视,http://39.134.24.162/dbiptv.sn.chinamobile.com/PLTV/88888890/224/3221226218/index.m3u8
延边卫视,http://39.134.24.162/dbiptv.sn.chinamobile.com/PLTV/88888890/224/3221226220/index.m3u8
兵团卫视,http://39.134.24.162/dbiptv.sn.chinamobile.com/PLTV/88888890/224/3221226214/index.m3u8
农林卫视,http://39.134.24.162/dbiptv.sn.chinamobile.com/PLTV/88888890/224/3221226229/index.m3u8
江苏卫视,http://39.134.24.166/dbiptv.sn.chinamobile.com/PLTV/88888890/224/3221226200/index.m3u8?
深圳卫视,http://39.134.24.166/dbiptv.sn.chinamobile.com/PLTV/88888890/224/3221226205/index.m3u8?
北京卫视,http://39.134.24.162/dbiptv.sn.chinamobile.com/PLTV/88888890/224/3221225796/index.m3u8?
海南卫视,http://39.134.24.162/dbiptv.sn.chinamobile.com/PLTV/88888890/224/3221225769/index.m3u8?
南方卫视,http://39.134.24.162/dbiptv.sn.chinamobile.com/PLTV/88888890/224/3221226218/index.m3u8?
黑龙江卫视,http://39.134.24.162/dbiptv.sn.chinamobile.com/PLTV/88888890/224/3221225802/index.m3u8
西藏卫视,http://39.134.24.162/dbiptv.sn.chinamobile.com/PLTV/88888890/224/3221226212/index.m3u8
延边卫视,http://39.134.24.162/dbiptv.sn.chinamobile.com/PLTV/88888890/224/3221226220/index.m3u8
兵团卫视,http://39.134.24.162/dbiptv.sn.chinamobile.com/PLTV/88888890/224/3221226214/index.m3u8
农林卫视,http://39.134.24.162/dbiptv.sn.chinamobile.com/PLTV/88888890/224/3221226229/index.m3u8
安徽卫视,http://39.134.66.110/PLTV/88888888/224/3221225925/index.m3u8
北京卫视,http://39.134.66.110/PLTV/88888888/224/3221225931/index.m3u8
东方卫视,http://39.134.66.110/PLTV/88888888/224/3221225942/index.m3u8
东南卫视,http://39.134.66.110/PLTV/88888888/224/3221225950/index.m3u8
广东卫视,http://39.134.66.110/PLTV/88888888/224/3221225966/index.m3u8
海南卫视,http://39.134.66.110/PLTV/88888888/224/3221225978/index.m3u8
河北卫视,http://39.134.66.110/PLTV/88888888/224/3221225961/index.m3u8
河南卫视,http://39.134.66.110/PLTV/88888888/224/3221225988/index.m3u8
黑龙江卫视,http://39.134.66.110/PLTV/88888888/224/3221225985/index.m3u8
湖北卫视,http://39.134.66.110/PLTV/88888888/224/3221225975/index.m3u8
湖南卫视,http://39.134.66.110/PLTV/88888888/224/3221225977/index.m3u8
吉林卫视,http://39.134.66.110/PLTV/88888888/224/3221225981/index.m3u8
江苏卫视,http://39.134.66.110/PLTV/88888888/224/3221225938/index.m3u8
江西卫视,http://39.134.66.110/PLTV/88888888/224/3221225935/index.m3u8
山东卫视,http://39.134.66.110/PLTV/88888888/224/3221225952/index.m3u8
深圳卫视,http://39.134.66.110/PLTV/88888888/224/3221225974/index.m3u8
四川卫视,http://39.134.66.110/PLTV/88888888/224/3221225970/index.m3u8
天津卫视,http://39.134.66.110/PLTV/88888888/224/3221225972/index.m3u8
浙江卫视,http://39.134.66.110/PLTV/88888888/224/3221225959/index.m3u8
重庆卫视,http://39.134.66.110/PLTV/88888888/224/3221225963/index.m3u8
湖南卫视,http://39.134.65.166/PLTV/88888888/224/3221225506/index.m3u8
湖南卫视,http://39.134.65.181/PLTV/88888888/224/3221225506/index.m3u8
江苏卫视,http://39.134.65.181/PLTV/88888888/224/3221225503/index.m3u8
浙江卫视,http://39.134.65.179/PLTV/88888888/224/3221225514/index.m3u8
浙江卫视,http://39.134.65.173/PLTV/88888888/224/3221225514/index.m3u8
浙江卫视,http://39.134.65.175/PLTV/88888888/224/3221225514/index.m3u8
东方卫视,http://39.134.65.179/PLTV/88888888/224/3221225672/index.m3u8
东方卫视,http://39.134.65.164/PLTV/88888888/224/3221225672/index.m3u8
东方卫视,http://39.134.65.173/PLTV/88888888/224/3221225672/index.m3u8
东方卫视,http://39.134.65.175/PLTV/88888888/224/3221225672/index.m3u8
深圳卫视,http://39.134.65.164/PLTV/88888888/224/3221225668/index.m3u8
深圳卫视,http://39.134.65.166/PLTV/88888888/224/3221225668/index.m3u8
北京卫视,http://39.134.65.179/PLTV/88888888/224/3221225678/index.m3u8
北京卫视,http://39.134.65.164/PLTV/88888888/224/3221225678/index.m3u8
北京卫视,http://39.134.65.166/PLTV/88888888/224/3221225678/index.m3u8
天津卫视,http://39.134.65.166/PLTV/88888888/224/3221225665/index.m3u8
天津卫视,http://39.134.66.66/PLTV/88888888/224/3221225665/index.m3u8
湖北卫视,http://39.134.65.164/PLTV/88888888/224/3221225569/index.m3u8
湖北卫视,http://39.134.66.66/PLTV/88888888/224/3221225569/index.m3u8
贵州卫视,http://39.134.65.149/PLTV/88888888/224/3221225974/index.m3u8
浙江卫视,http://39.134.65.208/PLTV/88888888/224/3221225514/index.m3u8
浙江卫视,http://39.134.66.2/PLTV/88888888/224/3221225514/index.m3u8
江苏卫视,http://39.134.65.208/PLTV/88888888/224/3221225503/index.m3u8
湖南卫视,http://39.134.65.208/PLTV/88888888/224/3221225506/index.m3u8
湖南卫视,http://39.134.66.2/PLTV/88888888/224/3221225506/index.m3u8
东方卫视,http://39.134.65.208/PLTV/88888888/224/3221225672/index.m3u8
湖北卫视,http://dbiptv.sn.chinamobile.com/PLTV/88888890/224/3221226194/index.m3u8
安徽卫视,http://dbiptv.sn.chinamobile.com/PLTV/88888890/224/3221226196/index.m3u8
浙江卫视,http://dbiptv.sn.chinamobile.com/PLTV/88888890/224/3221226199/index.m3u8
江苏卫视,http://dbiptv.sn.chinamobile.com/PLTV/88888890/224/3221226200/index.m3u8
辽宁卫视,http://dbiptv.sn.chinamobile.com/PLTV/88888890/224/3221226201/index.m3u8
辽宁卫视,http://dbiptv.sn.chinamobile.com/PLTV/88888890/224/3221226210/index.m3u8
重庆卫视,http://dbiptv.sn.chinamobile.com/PLTV/88888890/224/3221226202/index.m3u8
安徽卫视,http://dbiptv.sn.chinamobile.com/PLTV/88888890/224/3221226203/index.m3u8
天津卫视,http://dbiptv.sn.chinamobile.com/PLTV/88888890/224/3221226204/index.m3u8
深圳卫视,http://dbiptv.sn.chinamobile.com/PLTV/88888890/224/3221226205/index.m3u8
湖北卫视,http://dbiptv.sn.chinamobile.com/PLTV/88888890/224/3221226206/index.m3u8
山东卫视,http://dbiptv.sn.chinamobile.com/PLTV/88888890/224/3221226209/index.m3u8
湖南卫视,http://dbiptv.sn.chinamobile.com/PLTV/88888890/224/3221226211/index.m3u8
西藏卫视,http://dbiptv.sn.chinamobile.com/PLTV/88888890/224/3221226212/index.m3u8
兵团卫视,http://dbiptv.sn.chinamobile.com/PLTV/88888890/224/3221226214/index.m3u8
黑龙江卫视,http://dbiptv.sn.chinamobile.com/PLTV/88888890/224/3221226215/index.m3u8
广东卫视,http://dbiptv.sn.chinamobile.com/PLTV/88888890/224/3221226216/index.m3u8
东方卫视,http://dbiptv.sn.chinamobile.com/PLTV/88888890/224/3221226217/index.m3u8
大湾区卫视,http://dbiptv.sn.chinamobile.com/PLTV/88888890/224/3221226218/index.m3u8
厦门卫视,http://dbiptv.sn.chinamobile.com/PLTV/88888890/224/3221226219/index.m3u8
延边卫视,http://dbiptv.sn.chinamobile.com/PLTV/88888890/224/3221226220/index.m3u8
北京卫视,http://dbiptv.sn.chinamobile.com/PLTV/88888890/224/3221226222/index.m3u8
农林卫视,http://dbiptv.sn.chinamobile.com/PLTV/88888890/224/3221226229/index.m3u8
康巴卫视,http://dbiptv.sn.chinamobile.com/PLTV/88888890/224/3221226234/index.m3u8
安多卫视,http://dbiptv.sn.chinamobile.com/PLTV/88888890/224/3221226228/index.m3u8
斗鱼,#genre#
斗鱼电影4K,http://epg.112114.xyz/douyu/9249162
斗鱼电影HD1,http://epg.112114.xyz/douyu/4246519
斗鱼电影HD2,http://epg.112114.xyz/douyu/10240553
斗鱼电影HD3,http://epg.112114.xyz/douyu/122402
斗鱼电影HD4,http://epg.112114.xyz/douyu/85894
斗鱼电影HD5,http://epg.112114.xyz/douyu/263824
斗鱼电影HD6,http://epg.112114.xyz/douyu/747764
斗鱼电影HD7,http://epg.112114.xyz/douyu/20415
斗鱼电影HD8,http://epg.112114.xyz/douyu/8663752
斗鱼电影HD9,http://epg.112114.xyz/douyu/323876
斗鱼电影HD10,http://epg.112114.xyz/douyu/6140589
斗鱼电影HD11,http://epg.112114.xyz/douyu/8770422
斗鱼电影HD12,http://epg.112114.xyz/douyu/2436390
斗鱼电影HD13,http://epg.112114.xyz/douyu/218859
斗鱼电影HD14,http://epg.112114.xyz/douyu/36337
斗鱼电影HD15,http://epg.112114.xyz/douyu/413573
斗鱼电影HD16,http://epg.112114.xyz/douyu/1504768
斗鱼电影HD17,http://epg.112114.xyz/douyu/3637726
斗鱼电影HD18,http://epg.112114.xyz/douyu/9292492
斗鱼电影HD19,http://epg.112114.xyz/douyu/3637765rrt97
斗鱼电影HD20,http://epg.112114.xyz/douyu/10395991
斗鱼电影HD21,http://epg.112114.xyz/douyu/10395986
斗鱼电影HD22,http://epg.112114.xyz/douyu/252802
斗鱼电影HD24,http://epg.112114.xyz/douyu/315131
斗鱼电影HD25,http://epg.112114.xyz/douyu/8945323
斗鱼电影HD26,http://epg.112114.xyz/douyu/2516864
斗鱼电影HD27,http://epg.112114.xyz/douyu/248753
斗鱼电影HD28,http://epg.112114.xyz/douyu/4332
斗鱼电影HD29,http://epg.112114.xyz/douyu/9651304
斗鱼电影HD30,http://epg.112114.xyz/douyu/9650887
斗鱼电影HD31,http://epg.112114.xyz/douyu/8814650
斗鱼电影HD32,http://epg.112114.xyz/douyu/10240510
斗鱼电影HD34,http://epg.112114.xyz/douyu/8985415
斗鱼电影HD35,http://epg.112114.xyz/douyu/1165374
斗鱼电影HD36,http://epg.112114.xyz/douyu/1735337
斗鱼电影HD37,http://epg.112114.xyz/douyu/6537888
斗鱼电影HD38,http://epg.112114.xyz/douyu/6003761
斗鱼电影HD39,http://epg.112114.xyz/douyu/9683979
斗鱼电影HD40,http://epg.112114.xyz/douyu/1226741
斗鱼电影HD41,http://epg.112114.xyz/douyu/59612
斗鱼电影HD42,http://epg.112114.xyz/douyu/925724
斗鱼电影1,http://epg.112114.xyz/douyu/5423
斗鱼电影2,http://epg.112114.xyz/douyu/2935323
斗鱼电影3,http://epg.112114.xyz/douyu/6027991
斗鱼电影4,http://epg.112114.xyz/douyu/4105989
斗鱼电影5,http://epg.112114.xyz/douyu/6369954
斗鱼电影6,http://epg.112114.xyz/douyu/2793084
斗鱼电影7,http://epg.112114.xyz/douyu/7494871
斗鱼电影8,http://epg.112114.xyz/douyu/8986148
斗鱼电影9,http://epg.112114.xyz/douyu/74374
斗鱼电影10,http://epg.112114.xyz/douyu/4870914
斗鱼电影11,http://epg.112114.xyz/douyu/7305938
斗鱼电影12,http://epg.112114.xyz/douyu/310926
斗鱼电影13,http://epg.112114.xyz/douyu/9292499
斗鱼电影14,http://epg.112114.xyz/douyu/3637778
斗鱼电影15,http://epg.112114.xyz/douyu/8603174
斗鱼电影16,http://epg.112114.xyz/douyu/96577
斗鱼电影17,http://epg.112114.xyz/douyu/4282654
斗鱼电影18,http://epg.112114.xyz/douyu/338759
斗鱼电影19,http://epg.112114.xyz/douyu/10011042
斗鱼电影20,http://epg.112114.xyz/douyu/9275635
斗鱼电影21,http://epg.112114.xyz/douyu/5581257
斗鱼电影22,http://epg.112114.xyz/douyu/2466104
斗鱼电影23,http://epg.112114.xyz/douyu/5129261
斗鱼电影24,http://epg.112114.xyz/douyu/9652323
斗鱼电影25,http://epg.112114.xyz/douyu/9826611
斗鱼电影26,http://epg.112114.xyz/douyu/4505431
斗鱼电影27,http://epg.112114.xyz/douyu/7221304
斗鱼电影28,http://epg.112114.xyz/douyu/3990812
斗鱼电影29,http://epg.112114.xyz/douyu/315457
斗鱼电影30,http://epg.112114.xyz/douyu/805235
斗鱼电影31,http://epg.112114.xyz/douyu/6655271
斗鱼电影32,http://epg.112114.xyz/douyu/7353112
斗鱼电影33,http://epg.112114.xyz/douyu/434971
斗鱼电影34,http://epg.112114.xyz/douyu/10329300
斗鱼电影35,http://epg.112114.xyz/douyu/10298846
斗鱼电影36,http://epg.112114.xyz/douyu/3789245
斗鱼电影37,http://epg.112114.xyz/douyu/6763930
斗鱼电影38,http://epg.112114.xyz/douyu/7136517
斗鱼电影39,http://epg.112114.xyz/douyu/8107217
斗鱼电视剧HD1,http://epg.112114.xyz/douyu/2838296
斗鱼电视剧HD2,http://epg.112114.xyz/douyu/7701735
斗鱼电视剧HD3,http://epg.112114.xyz/douyu/7517784
斗鱼电视剧HD4,http://epg.112114.xyz/douyu/7489563
斗鱼电视剧HD5,http://epg.112114.xyz/douyu/6566658
斗鱼电视剧HD6,http://epg.112114.xyz/douyu/431460
斗鱼电视剧HD7,http://epg.112114.xyz/douyu/8600645
斗鱼电视剧HD8,http://epg.112114.xyz/douyu/7575350
斗鱼电视剧HD10,http://epg.112114.xyz/douyu/7644931
斗鱼电视剧HD11,http://epg.112114.xyz/douyu/9650860
斗鱼电视剧HD12,http://epg.112114.xyz/douyu/9435180
斗鱼电视剧HD13,http://epg.112114.xyz/douyu/3756989
斗鱼电视剧HD14,http://epg.112114.xyz/douyu/6706214
斗鱼电视剧HD15,http://epg.112114.xyz/douyu/6478650
斗鱼电视剧1,http://epg.112114.xyz/douyu/299854
斗鱼电视剧2,http://epg.112114.xyz/douyu/6899895
斗鱼电视剧3,http://epg.112114.xyz/douyu/276200
斗鱼电视剧4,http://epg.112114.xyz/douyu/4290711
斗鱼电视剧5,http://epg.112114.xyz/douyu/6648727
斗鱼电视剧6,http://epg.112114.xyz/douyu/7314294
斗鱼电视剧7,http://epg.112114.xyz/douyu/9638983
斗鱼电视剧8,http://epg.112114.xyz/douyu/5261342
斗鱼电视剧9,http://epg.112114.xyz/douyu/5522351
斗鱼电视剧10,http://epg.112114.xyz/douyu/9639508
斗鱼电视剧11,http://epg.112114.xyz/douyu/2083382
斗鱼电视剧12,http://epg.112114.xyz/douyu/4373285
斗鱼电视剧13,http://epg.112114.xyz/douyu/3439096
斗鱼电视剧14,http://epg.112114.xyz/douyu/4549169
斗鱼电视剧15,http://epg.112114.xyz/douyu/7254536
斗鱼电视剧16,http://epg.112114.xyz/douyu/3928r9
斗鱼电视剧17,http://epg.112114.xyz/douyu/7270927
斗鱼电视剧18,http://epg.112114.xyz/douyu/7116591
斗鱼电视剧19,http://epg.112114.xyz/douyu/7459925
斗鱼电视剧20,http://epg.112114.xyz/douyu/674441
斗鱼电视剧21,http://epg.112114.xyz/douyu/9518204
斗鱼电视剧22,http://epg.112114.xyz/douyu/10297898
斗鱼电视剧23,http://epg.112114.xyz/douyu/8901218
斗鱼电视剧24,http://epg.112114.xyz/douyu/7292330
斗鱼电视剧25,http://epg.112114.xyz/douyu/7623292
斗鱼电视剧26,http://epg.112114.xyz/douyu/7356023
斗鱼电视剧27,http://epg.112114.xyz/douyu/10068957
斗鱼电视剧28,http://epg.112114.xyz/douyu/308752
斗鱼电视剧29,http://epg.112114.xyz/douyu/3758762
斗鱼动漫HD1,http://epg.112114.xyz/douyu/6449849
斗鱼动漫HD2,http://epg.112114.xyz/douyu/206858
斗鱼动漫HD3,http://epg.112114.xyz/douyu/10394922
斗鱼动漫1,http://epg.112114.xyz/douyu/6610883
斗鱼动漫2,http://epg.112114.xyz/douyu/1783144
斗鱼动漫3,http://epg.112114.xyz/douyu/7190773
斗鱼动漫4,http://epg.112114.xyz/douyu/1174353
斗鱼动漫5,http://epg.112114.xyz/douyu/7528160
斗鱼动漫6,http://epg.112114.xyz/douyu/7888428
斗鱼搞笑HD1,http://epg.112114.xyz/douyu/9220456
斗鱼搞笑HD2,http://epg.112114.xyz/douyu/9770949
斗鱼搞笑HD3,http://epg.112114.xyz/douyu/9067836
斗鱼搞笑HD4,http://epg.112114.xyz/douyu/9817729
斗鱼搞笑HD5,http://epg.112114.xyz/douyu/8737695
斗鱼搞笑1,http://epg.112114.xyz/douyu/10378551
斗鱼搞笑2,http://epg.112114.xyz/douyu/9804180
斗鱼搞笑3,http://epg.112114.xyz/douyu/2132902
斗鱼影评HD2,http://epg.112114.xyz/douyu/10240495
斗鱼影评HD3,http://epg.112114.xyz/douyu/9419771
斗鱼影评HD4,http://epg.112114.xyz/douyu/4258555
斗鱼影评HD5,http://epg.112114.xyz/douyu/8317926
斗鱼影评HD6,http://epg.112114.xyz/douyu/10317257
斗鱼影评HD7,http://epg.112114.xyz/douyu/8986636
斗鱼影评HD8,http://epg.112114.xyz/douyu/9837291
斗鱼影评HD9,http://epg.112114.xyz/douyu/297689
斗鱼影评HD10,http://epg.112114.xyz/douyu/8651489
斗鱼影评HD11,http://epg.112114.xyz/douyu/8656759
斗鱼影评1,http://epg.112114.xyz/douyu/9562616
斗鱼影评2,http://epg.112114.xyz/douyu/9527700
斗鱼影评3,http://epg.112114.xyz/douyu/2758565
斗鱼影评4,http://epg.112114.xyz/douyu/9573592
斗鱼美食HD1,http://epg.112114.xyz/douyu/2901080
斗鱼美食HD2,http://epg.112114.xyz/douyu/8144937
斗鱼科普HD1,http://epg.112114.xyz/douyu/9317739
斗鱼科普HD2,http://epg.112114.xyz/douyu/9447974
斗鱼科普HD3,http://epg.112114.xyz/douyu/9369468
斗鱼科普HD4,http://epg.112114.xyz/douyu/9385288
斗鱼科普HD5,http://epg.112114.xyz/douyu/8434598
斗鱼科普HD6,http://epg.112114.xyz/douyu/7357786
斗鱼科普1,http://epg.112114.xyz/douyu/2022306
斗鱼科普2,http://epg.112114.xyz/douyu/2172818
斗鱼科普3,http://epg.112114.xyz/douyu/3570168
斗鱼科普4,http://epg.112114.xyz/douyu/838632
斗鱼科普5,http://epg.112114.xyz/douyu/9412981
斗鱼科普6,http://epg.112114.xyz/douyu/8667001
斗鱼历史1,http://epg.112114.xyz/douyu/9738854
斗鱼历史2,http://epg.112114.xyz/douyu/10102281
斗鱼历史3,http://epg.112114.xyz/douyu/1330448
斗鱼历史4,http://epg.112114.xyz/douyu/227670
斗鱼历史5,http://epg.112114.xyz/douyu/2320076
斗鱼历史6,http://epg.112114.xyz/douyu/4275776
斗鱼军事1,http://epg.112114.xyz/douyu/1877962
斗鱼军事2,http://epg.112114.xyz/douyu/9530915
斗鱼体育1,http://epg.112114.xyz/douyu/10302182
斗鱼体育2,http://epg.112114.xyz/douyu/9170147
斗鱼体育3,http://epg.112114.xyz/douyu/9471214
斗鱼说法1,http://epg.112114.xyz/douyu/10379308
斗鱼说法2,http://epg.112114.xyz/douyu/709710
斗鱼说法3,http://epg.112114.xyz/douyu/8805
斗鱼游戏4K1,http://epg.112114.xyz/douyu/4147
斗鱼游戏4K2,http://epg.112114.xyz/douyu/5832903
斗鱼游戏HD1,http://epg.112114.xyz/douyu/5720533
斗鱼游戏HD2,http://epg.112114.xyz/douyu/101367
斗鱼游戏HD3,http://epg.112114.xyz/douyu/641986
斗鱼游戏HD5,http://epg.112114.xyz/douyu/3168536
斗鱼游戏HD6,http://epg.112114.xyz/douyu/5524515
斗鱼游戏HD7,http://epg.112114.xyz/douyu/10235695
斗鱼游戏HD8,http://epg.112114.xyz/douyu/4346416
斗鱼游戏HD9,http://epg.112114.xyz/douyu/1080583
斗鱼游戏HD10,http://epg.112114.xyz/douyu/9829796
斗鱼游戏HD11,http://epg.112114.xyz/douyu/1863767
斗鱼游戏HD12,http://epg.112114.xyz/douyu/288016
斗鱼游戏HD14,http://epg.112114.xyz/douyu/2947432
斗鱼游戏HD15,http://epg.112114.xyz/douyu/9545122
斗鱼游戏HD16,http://epg.112114.xyz/douyu/9412634
斗鱼游戏HD17,http://epg.112114.xyz/douyu/10208727
斗鱼游戏HD18,http://epg.112114.xyz/douyu/582442
斗鱼游戏HD19,http://epg.112114.xyz/douyu/10389796
斗鱼游戏HD20,http://epg.112114.xyz/douyu/10072325
斗鱼游戏HD21,http://epg.112114.xyz/douyu/10608093
斗鱼游戏HD22,http://epg.112114.xyz/douyu/6601808
斗鱼游戏HD23,http://epg.112114.xyz/douyu/9747078
斗鱼游戏HD24,http://epg.112114.xyz/douyu/7929609
斗鱼游戏HD25,http://epg.112114.xyz/douyu/2038911
斗鱼游戏HD26,http://epg.112114.xyz/douyu/486816
斗鱼游戏HD27,http://epg.112114.xyz/douyu/459911
斗鱼游戏HD28,http://epg.112114.xyz/douyu/4872710
斗鱼游戏HD29,http://epg.112114.xyz/douyu/428250
斗鱼游戏HD30,http://epg.112114.xyz/douyu/703747
斗鱼游戏3,http://epg.112114.xyz/douyu/2018127
斗鱼游戏4,http://epg.112114.xyz/douyu/24422
斗鱼游戏7,http://epg.112114.xyz/douyu/65251
斗鱼游戏8,http://epg.112114.xyz/douyu/6712395
斗鱼游戏9,http://epg.112114.xyz/douyu/693708
斗鱼棋牌1,http://epg.112114.xyz/douyu/1227260
斗鱼棋牌2,http://epg.112114.xyz/douyu/851040
斗鱼棋牌3,http://epg.112114.xyz/douyu/6264482
斗鱼棋牌4,http://epg.112114.xyz/douyu/4369877
斗鱼歌舞HD1,http://epg.112114.xyz/douyu/6129898
斗鱼歌舞HD2,http://epg.112114.xyz/douyu/920891
斗鱼歌舞HD3,http://epg.112114.xyz/douyu/5943125
斗鱼歌舞HD4,http://epg.112114.xyz/douyu/3763915
斗鱼歌舞HD5,http://epg.112114.xyz/douyu/1607787
斗鱼歌舞HD6,http://epg.112114.xyz/douyu/549212
斗鱼歌舞HD7,http://epg.112114.xyz/douyu/592561
斗鱼歌舞HD8,http://epg.112114.xyz/douyu/10386206
斗鱼歌舞HD9,http://epg.112114.xyz/douyu/8711854
斗鱼歌舞HD10,http://epg.112114.xyz/douyu/87777
斗鱼歌舞HD11,http://epg.112114.xyz/douyu/90999
斗鱼歌舞HD12,http://epg.112114.xyz/douyu/591657
斗鱼歌舞HD13,http://epg.112114.xyz/douyu/1011
斗鱼歌舞1,http://epg.112114.xyz/douyu/6266000
斗鱼歌舞2,http://epg.112114.xyz/douyu/5628327
斗鱼歌舞3,http://epg.112114.xyz/douyu/4582220
斗鱼歌舞4,http://epg.112114.xyz/douyu/5103313
斗鱼歌舞5,http://epg.112114.xyz/douyu/5746514
斗鱼歌舞6,http://epg.112114.xyz/douyu/7771387
斗鱼歌舞7,http://epg.112114.xyz/douyu/5367400
斗鱼歌舞8,http://epg.112114.xyz/douyu/5278299
斗鱼歌舞9,http://epg.112114.xyz/douyu/10118209
斗鱼歌舞10,http://epg.112114.xyz/douyu/170426
斗鱼歌舞11,http://epg.112114.xyz/douyu/22619
斗鱼歌舞12,http://epg.112114.xyz/douyu/5772555
斗鱼歌舞13,http://epg.112114.xyz/douyu/6508860
斗鱼歌舞14,http://epg.112114.xyz/douyu/92000
斗鱼歌舞15,http://epg.112114.xyz/douyu/9837104
斗鱼综艺HD1,http://epg.112114.xyz/douyu/131977
斗鱼综艺HD2,http://epg.112114.xyz/douyu/7298973
斗鱼综艺HD3,http://epg.112114.xyz/douyu/9236042
斗鱼MTV1,http://epg.112114.xyz/douyu/231464
斗鱼MTV2,http://epg.112114.xyz/douyu/5635000
斗鱼MTV3,http://epg.112114.xyz/douyu/17732
斗鱼MTV4,http://epg.112114.xyz/douyu/9586235
斗鱼搏击,http://epg.112114.xyz/douyu/425809
斗鱼车评,http://epg.112114.xyz/douyu/321987
斗鱼读书,http://epg.112114.xyz/douyu/11211
斗鱼旅游1,http://epg.112114.xyz/douyu/1109218
斗鱼旅游2,http://epg.112114.xyz/douyu/6580174
斗鱼收藏,http://epg.112114.xyz/douyu/9812765
斗鱼书画1,http://epg.112114.xyz/douyu/10633755
斗鱼书画2,http://epg.112114.xyz/douyu/10633758
斗鱼书画3,http://epg.112114.xyz/douyu/1319043
斗鱼书画4,http://epg.112114.xyz/douyu/3436981
斗鱼书画5,http://epg.112114.xyz/douyu/7856263
斗鱼书画6,http://epg.112114.xyz/douyu/1066432
斗鱼书画7,http://epg.112114.xyz/douyu/6327572
斗鱼怀旧1,http://epg.112114.xyz/douyu/10891424
斗鱼怀旧2,http://epg.112114.xyz/douyu/8023713
斗鱼怀旧3,http://epg.112114.xyz/douyu/30191
斗鱼怀旧4,http://epg.112114.xyz/douyu/9654885
斗鱼怀旧5,http://epg.112114.xyz/douyu/7505922
斗鱼怀旧6,http://epg.112114.xyz/douyu/60117
斗鱼怀旧8,http://epg.112114.xyz/douyu/9432
斗鱼怀旧9,http://epg.112114.xyz/douyu/69247
斗鱼旅行1,http://epg.112114.xyz/douyu/9970646
斗鱼旅行2,http://epg.112114.xyz/douyu/6563725
斗鱼旅行3,http://epg.112114.xyz/douyu/1668562
斗鱼旅行4,http://epg.112114.xyz/douyu/9511092
斗鱼旅行5,http://epg.112114.xyz/douyu/9358196
斗鱼旅行6,http://epg.112114.xyz/douyu/454867
斗鱼旅行7,http://epg.112114.xyz/douyu/4837387
斗鱼旅行8,http://epg.112114.xyz/douyu/850030
斗鱼旅行9,http://epg.112114.xyz/douyu/9378464
斗鱼旅行10,http://epg.112114.xyz/douyu/10253213
斗鱼旅行11,http://epg.112114.xyz/douyu/10319093
斗鱼旅行12,http://epg.112114.xyz/douyu/442280
斗鱼旅行13,http://epg.112114.xyz/douyu/1867491
斗鱼旅行14,http://epg.112114.xyz/douyu/1255068
斗鱼旅行15,http://epg.112114.xyz/douyu/9314668
斗鱼旅行16,http://epg.112114.xyz/douyu/9172774
斗鱼旅行17,http://epg.112114.xyz/douyu/4834417
斗鱼旅行18,http://epg.112114.xyz/douyu/2240445
肥羊4K-8K,#genre#
4K60PSDR-H264-AAC测试,http://159.75.85.63:5680/d/ad/h264/playad.m3u8
4K60PHLG-HEVC-EAC3测试,http://159.75.85.63:5680/d/ad/playad.m3u8
BTV纪实科教-8KSDR源,http://159.75.85.63:6798
CCTV8K,http://159.75.85.63:8765/xxtv8k.php
CCTV8K-50FPS,http://159.75.85.63:8654/xx8k50fps.php
苏州4K,http://liveshowbak2.kan0512.com/ksz-norecord/csztv4k_4k.m3u8
欢笑剧场4K银河源,http://111.20.35.103:6610/yinhe/2/ch00000090990000002156/index.m3u8?virtualDomain=yinhe.live_hls.zte.com&IASHttpSessionId=
欢笑剧场4K,https://live.goodiptv.club/api/cqyx.php?id=hxjc_4K
纯享4K,http://39.135.138.58:18890/PLTV/88888888/224/3221225786/index.m3u8
纯享4K备,http://39.134.115.163:8080/PLTV/88888910/224/3221225786/index.m3u8
CCTV4K-25P-HLG源,http://159.75.85.63:5679/cctv4k.php
CCTV4K-25P-SDR源,https://live.goodiptv.club/api/cqyx.php?id=CCTV4K
CCTV16-4K25P-SDR源,https://live.goodiptv.club/api/cqyx.php?id=CCTV16_4K
CCTV16-4K-25PHLG源,http://113.62.253.22/live.aishang.ctlcdn.com/00000110240389_1/playlist.m3u8?CONTENTID=00000110240389_1&AUTHINFO=FABqh274XDn8fkurD5614t%2B1RvYajgx%2Ba3PxUJe1SMO4OjrtFitM6ZQbSJEFffaD35hOAhZdTXOrK0W8QvBRom%2BXaXZYzB%2FQfYjeYzGgKhP%2Fdo%2BXpr4quVxlkA%2BubKvbU1XwJFRgrbX%2BnTs60JauQUrav8kLj%2FPH8LxkDFpzvkq75UfeY%2FVNDZygRZLw4j%2BXtwhj%2FIuXf1hJAU0X%2BheT7g%3D%3D&USERTOKEN=eHKuwve%2F35NVIR5qsO5XsuB0O2BhR0KR
爱上4K,http://111.20.40.170/PLTV/88888893/224/3221226352/index.m3u8
北京IPTV-4K,http://221.179.217.76/PLTV/88888888/224/3221226550/1.m3u8
4K影视,http://nas.jdshipin.com:8801/4kys.php
虎牙4K王者荣耀,http://159.75.85.63:35455/huya/wzgxs1
虎牙魔兽世界4K,http://159.75.85.63:35455/huya/shangdi
虎牙战地五4K,http://159.75.85.63:35455/huya/28260962
斗鱼4K激战2,http://159.75.85.63:35455/douyu/3916618
斗鱼4K电影,http://159.75.85.63:35455/douyu/9249162
咪咕体育-4K-HLG源,http://gslbserv.itv.cmvideo.cn:80/3000000010000005180/index.m3u8?channel-id=FifastbLive&Contentid=3000000010000005180&livemode=1&stbId=3
咪咕体育-4K源-2,http://gslbserv.itv.cmvideo.cn:80/3000000010000015686/index.m3u8?channel-id=FifastbLive&Contentid=3000000010000015686&livemode=1&stbId=3
江苏8K测试,http://[2409:8087:2001:20:2800:0:df6e:eb04]/wh7f454c46tw1782571424_-1576923679/ott.mobaibox.com/PLTV/3/224/3221228132/index.m3u8?icpid=3&RTS=1674188624&from=40&popid=40&hms_devid=2041&prioritypopid=40&vqe=3
CCTV8K测试,http://[2409:8087:2001:20:2800:0:df6e:eb03]/wh7f454c46tw1981574683_-2118700426/ott.mobaibox.com/PLTV/3/224/3221228165/index.m3u8?icpid=3&RTS=1659435610&from=40&popid=40&hms_devid=2039&prioritypopid=40&vqe=3
CCTV1-4K,http://[2409:8087:2001:20:2800:0:df6e:eb02]/ott.mobaibox.com/PLTV/4/224/3221227896/index.m3u8
CCTV3-4K,http://[2409:8087:2001:20:2800:0:df6e:eb20]/ott.mobaibox.com/PLTV/4/224/3221228499/index.m3u8
CCTV5-4K,http://[2409:8087:2001:20:2800:0:df6e:eb22]/ott.mobaibox.com/PLTV/4/224/3221228502/index.m3u8
CCTV6-4K,http://[2409:8087:2001:20:2800:0:df6e:eb22]/ott.mobaibox.com/PLTV/4/224/3221228516/index.m3u8
CCTV8-4K,http://[2409:8087:2001:20:2800:0:df6e:eb26]/ott.mobaibox.com/PLTV/4/224/3221228578/index.m3u8
未知4K,http://[2409:8087:2004:20:2800:0:df6e:ec11]/wh7f454c46tw3939513710_-75405980/ott.mobaibox.com/PLTV/3/224/3221227579/index.m3u8?icpid=3&RTS=1678666137&from=40&popid=40&hms_devid=2153&prioritypopid=40&vqe=3
BesTV-4K,http://[2409:8087:5e01:34::30]:6610/ZTE_CMS/00000001000000060000000000000202/index.m3u8?IAS
河南4K,http://[2409:8087:4400:20:1:a0f:12:33]/iptv.cdn.ha.chinamobile.com/PLTV/88888888/224/3221226526/index.m3u8
芒果娱乐4K,http://[2409:8087:3428:20:500::100f]:6610/PLTV/88888888/224/3221226887/index.m3u8?servicetype=1
纯享4K,http://[2409:8087:3869:8021:1001::e5]:6610/PLTV/88888910/224/3221225786/index.m3u8
肥羊BESTV,#genre#
CCTV16-4K,https://live.goodiptv.club/api/bestv.php?id=cctv16hd4k/15000000
CCTV-4K,https://live.goodiptv.club/api/bestv.php?id=cctv4k/15000000
欢笑剧场4k,https://live.goodiptv.club/api/bestv.php?id=hxjc4k/15000000
4K60PSDR-H264-AAC测试,http://159.75.85.63:5680/d/ad/h264/playad.m3u8
4K60PHLG-HEVC-EAC3测试,http://159.75.85.63:5680/d/ad/playad.m3u8
CCTV1,https://live.goodiptv.club/api/bestv.php?id=cctv1hd8m/8000000
CCTV2,https://live.goodiptv.club/api/bestv.php?id=cctv2hd8m/8000000
CCTV3,https://live.goodiptv.club/api/bestv.php?id=cctv38m/8000000
CCTV4,https://live.goodiptv.club/api/bestv.php?id=cctv4hd8m/8000000
CCTV5,https://live.goodiptv.club/api/bestv.php?id=cctv58m/8000000
CCTV5+,https://live.goodiptv.club/api/bestv.php?id=cctv5phd8m/8000000
CCTV6,https://live.goodiptv.club/api/bestv.php?id=cctv6hd8m/8000000
CCTV7,https://live.goodiptv.club/api/bestv.php?id=cctv7hd8m/8000000
CCTV8,https://live.goodiptv.club/api/bestv.php?id=cctv8hd8m/8000000
CCTV9,https://live.goodiptv.club/api/bestv.php?id=cctv9hd8m/8000000
CCTV10,https://live.goodiptv.club/api/bestv.php?id=cctv10hd8m/8000000
CCTV11,https://live.goodiptv.club/api/bestv.php?id=cctv11hd8m/8000000
CCTV12,https://live.goodiptv.club/api/bestv.php?id=cctv12hd8m/8000000
CCTV13,https://live.goodiptv.club/api/bestv.php?id=cctv13xwhd8m/8000000
CCTV14,https://live.goodiptv.club/api/bestv.php?id=cctvsehd8m/8000000
CCTV15,https://live.goodiptv.club/api/bestv.php?id=cctv15hd8m/8000000
CCTV16,https://live.goodiptv.club/api/bestv.php?id=cctv16hd8m/8000000
CCTV17,https://live.goodiptv.club/api/bestv.php?id=cctv17hd8m/8000000
江苏卫视,https://live.goodiptv.club/api/bestv.php?id=jswshd8m/8000000
广西卫视,https://live.goodiptv.club/api/bestv.php?id=gxwshd8m/8000000
四川卫视,https://live.goodiptv.club/api/bestv.php?id=scwshd/8000000
湖南卫视,https://live.goodiptv.club/api/bestv.php?id=hunanwshd8m/8000000
浙江卫视,https://live.goodiptv.club/api/bestv.php?id=zjwshd8m/8000000
东方卫视,https://live.goodiptv.club/api/bestv.php?id=dfwshd8m/8000000
北京卫视,https://live.goodiptv.club/api/bestv.php?id=bjwshd8m/8000000
天津卫视,https://live.goodiptv.club/api/bestv.php?id=tjwshd8m/8000000
辽宁卫视,https://live.goodiptv.club/api/bestv.php?id=lnwshd8m/8000000
安徽卫视,https://live.goodiptv.club/api/bestv.php?id=ahwshd8m/8000000
黑龙江卫视,https://live.goodiptv.club/api/bestv.php?id=hljwshd8m/8000000
广东卫视,https://live.goodiptv.club/api/bestv.php?id=gdwshd8m/8000000
深圳卫视,https://live.goodiptv.club/api/bestv.php?id=szwshd8m/8000000
湖北卫视,https://live.goodiptv.club/api/bestv.php?id=hubeiws8m/8000000
吉林卫视,https://live.goodiptv.club/api/bestv.php?id=jlwshd8m/8000000
山东卫视,https://live.goodiptv.club/api/bestv.php?id=sdws8m/8000000
江西卫视,https://live.goodiptv.club/api/bestv.php?id=jxws8m/8000000
河南卫视,https://live.goodiptv.club/api/bestv.php?id=hnwshd8m/8000000
河北卫视,https://live.goodiptv.club/api/bestv.php?id=hbwshd8m/8000000
甘肃卫视,https://live.goodiptv.club/api/bestv.php?id=gswshd8m/8000000
重庆卫视,https://live.goodiptv.club/api/bestv.php?id=cqws8m/8000000
东南卫视,https://live.goodiptv.club/api/bestv.php?id=dnwshd8m/8000000
云南卫视,https://live.goodiptv.club/api/bestv.php?id=ynwshd8m/8000000
贵州卫视,https://live.goodiptv.club/api/bestv.php?id=gzwshd8m/8000000
海南卫视,https://live.goodiptv.club/api/bestv.php?id=hainanwshd8m/8000000
欢笑剧场,https://live.goodiptv.club/api/bestv.php?id=hxjc8m/8000000
劲爆体育,https://live.goodiptv.club/api/bestv.php?id=jbtyhd8m/8000000
快乐垂钓,https://live.goodiptv.club/api/bestv.php?id=klcd8m/8000000
金鹰纪实,https://live.goodiptv.club/api/bestv.php?id=jyjs8m/8000000
戏曲精选,https://live.goodiptv.club/api/bestv.php?id=xqjx8m/8000000
上海第一财经,https://live.goodiptv.club/api/bestv.php?id=dycjhd8m/8000000
上视新闻,https://live.goodiptv.club/api/bestv.php?id=xwzhhd8m/8000000
上海都市,https://live.goodiptv.club/api/bestv.php?id=dshd8m/8000000
上海纪实,https://live.goodiptv.club/api/bestv.php?id=jspdhd/4000000
东方影视,https://live.goodiptv.club/api/bestv.php?id=dfyshd8m/8000000
五星体育,https://live.goodiptv.club/api/bestv.php?id=wxtyhd8m/8000000
上视外语,https://live.goodiptv.club/api/bestv.php?id=icshd8m/8000000
七彩戏剧,https://live.goodiptv.club/api/bestv.php?id=qcxjhd8m/8000000
上海教育,https://live.goodiptv.club/api/bestv.php?id=setvhd/8000000
全纪实,https://live.goodiptv.club/api/bestv.php?id=qjshd8m/8000000
生活时尚,https://live.goodiptv.club/api/bestv.php?id=shss8m/8000000
新视觉,https://live.goodiptv.club/api/bestv.php?id=xsjhd8m/8000000
游戏风云,https://live.goodiptv.club/api/bestv.php?id=yxfy8m/8000000
热门综艺,https://live.goodiptv.club/api/bestv.php?id=rmzy8m/8000000
超级体育,https://live.goodiptv.club/api/bestv.php?id=qcsj8m/8000000
健康养生,https://live.goodiptv.club/api/bestv.php?id=jkys8m/8000000
百变课堂,https://live.goodiptv.club/api/bestv.php?id=bbkt8m/8000000
看天下精选,https://live.goodiptv.club/api/bestv.php?id=ktxjx8m/8000000
华语影院,https://live.goodiptv.club/api/bestv.php?id=hyyy8m/8000000
电竞天堂,https://live.goodiptv.club/api/bestv.php?id=djtt8m/8000000
青春动漫,https://live.goodiptv.club/api/bestv.php?id=qcdm8m/8000000
宝宝动画,https://live.goodiptv.club/api/bestv.php?id=bbdh8m/8000000
星光影院,https://live.goodiptv.club/api/bestv.php?id=xgyy8m/8000000
谍战剧场,https://live.goodiptv.club/api/bestv.php?id=dzjc8m/8000000
全球大片,https://live.goodiptv.club/api/bestv.php?id=qqdp8m/8000000
热门剧场,https://live.goodiptv.club/api/bestv.php?id=rmjc8m/8000000
陶瓷高清,https://live.goodiptv.club/api/bestv.php?id=taocihd/8000000
中国教育-1,https://live.goodiptv.club/api/bestv.php?id=zgjy1t8m/8000000
中国教育-4,https://live.goodiptv.club/api/bestv.php?id=zgjy4hd8m/8000000
卡酷少儿,https://live.goodiptv.club/api/bestv.php?id=kkse8m/8000000
纪实科教,https://live.goodiptv.club/api/bestv.php?id=dajs8m/8000000
茶频道,https://live.goodiptv.club/api/bestv.php?id=cpdhdavs8m/8000000
足球高清,https://live.goodiptv.club/api/bestv.php?id=zqpd8m/8000000
炫动卡通,https://live.goodiptv.club/api/bestv.php?id=hhxd8m/8000000
东方财经,https://live.goodiptv.club/api/bestv.php?id=dfcjhd8m/8000000
都市剧场,https://live.goodiptv.club/api/bestv.php?id=dsjc8m/8000000
动漫秀场,https://live.goodiptv.club/api/bestv.php?id=dmxc8m/8000000
法治天地,https://live.goodiptv.club/api/bestv.php?id=fztd8m/8000000
金色学堂,https://live.goodiptv.club/api/bestv.php?id=jingsepd8m/8000000
魅力足球,https://live.goodiptv.club/api/bestv.php?id=mlyyhd8m/8000000
肥羊CQYX,#genre#
欢笑剧场4K,https://live.goodiptv.club/api/cqyx.php?id=hxjc_4K
CCTV-4K,https://live.goodiptv.club/api/cqyx.php?id=CCTV4K
CCTV16-4K,https://live.goodiptv.club/api/cqyx.php?id=CCTV16_4K
4K60PSDR-H264-AAC测试,http://159.75.85.63:5680/d/ad/h264/playad.m3u8
4K60PHLG-HEVC-EAC3测试,http://159.75.85.63:5680/d/ad/playad.m3u8
CCTV1综合,https://live.goodiptv.club/api/cqyx.php?id=cctv1HD
CCTV2财经,https://live.goodiptv.club/api/cqyx.php?id=cctv2HD
CCTV3综艺,https://live.goodiptv.club/api/cqyx.php?id=cctv3HD
CCTV4中文国际,https://live.goodiptv.club/api/cqyx.php?id=cctv4HD
CCTV5体育,https://live.goodiptv.club/api/cqyx.php?id=cctv5HD
CCTV5P,https://live.goodiptv.club/api/cqyx.php?id=cctv5SportHD
CCTV6电影,https://live.goodiptv.club/api/cqyx.php?id=cctv6HD
CCTV7国防军事,https://live.goodiptv.club/api/cqyx.php?id=cctv7HD
CCTV8电视剧,https://live.goodiptv.club/api/cqyx.php?id=cctv8HD
CCTV9纪录,https://live.goodiptv.club/api/cqyx.php?id=cctv9HD
CCTV10科教,https://live.goodiptv.club/api/cqyx.php?id=cctv10HD
CCTV11戏曲,https://live.goodiptv.club/api/cqyx.php?id=cctv11HD
CCTV12社会与法,https://live.goodiptv.club/api/cqyx.php?id=cctv12HD
CCTV13新闻,https://live.goodiptv.club/api/cqyx.php?id=CCTVNewsHD
CCTV14少儿,https://live.goodiptv.club/api/cqyx.php?id=cctvseHD
CCTV15音乐,https://live.goodiptv.club/api/cqyx.php?id=cctv15HD
CCTV16奥林匹克,https://live.goodiptv.club/api/cqyx.php?id=cctv16HD
CCTV17农业农村,https://live.goodiptv.club/api/cqyx.php?id=cctv17HD
重庆卫视,https://live.goodiptv.club/api/cqyx.php?id=chongqingHD
江苏卫视,https://live.goodiptv.club/api/cqyx.php?id=jiangsuHD
北京卫视,https://live.goodiptv.club/api/cqyx.php?id=beijingHD
浙江卫视,https://live.goodiptv.club/api/cqyx.php?id=zhejiangHD
东方卫视,https://live.goodiptv.club/api/cqyx.php?id=shanghaiHD
深圳卫视,https://live.goodiptv.club/api/cqyx.php?id=shenzhenHD
辽宁卫视,https://live.goodiptv.club/api/cqyx.php?id=liaoningHD
天津卫视,https://live.goodiptv.club/api/cqyx.php?id=tianjinHD
贵州卫视,https://live.goodiptv.club/api/cqyx.php?id=guizhouHD
四川卫视,https://live.goodiptv.club/api/cqyx.php?id=sichuanHD
云南卫视,https://live.goodiptv.club/api/cqyx.php?id=yunnanSD
东南卫视,https://live.goodiptv.club/api/cqyx.php?id=dongnanHD
黑龙江卫视,https://live.goodiptv.club/api/cqyx.php?id=heilongjiangHD
安徽卫视,https://live.goodiptv.club/api/cqyx.php?id=anhuiSD
河北卫视,https://live.goodiptv.club/api/cqyx.php?id=hebeiSD
江西卫视,https://live.goodiptv.club/api/cqyx.php?id=jiangxiHD
湖北卫视,https://live.goodiptv.club/api/cqyx.php?id=hubeiSD
海南卫视,https://live.goodiptv.club/api/cqyx.php?id=hainanSD
吉林卫视,https://live.goodiptv.club/api/cqyx.php?id=jilinHD
广西卫视,https://live.goodiptv.club/api/cqyx.php?id=guangxiHD
内蒙古卫视,https://live.goodiptv.club/api/cqyx.php?id=neimengkuSD
湖南卫视,https://live.goodiptv.club/api/cqyx.php?id=hunanHD
广东卫视,https://live.goodiptv.club/api/cqyx.php?id=guangdongHD
河南卫视,https://live.goodiptv.club/api/cqyx.php?id=henanHD
山西卫视,https://live.goodiptv.club/api/cqyx.php?id=shanxiSD
兵团卫视,https://live.goodiptv.club/api/cqyx.php?id=bingtuanSD
宁夏卫视,https://live.goodiptv.club/api/cqyx.php?id=ningxia
北京卡酷少儿,https://live.goodiptv.club/api/cqyx.php?id=bjkakuSD
金鹰卡通,https://live.goodiptv.club/api/cqyx.php?id=jinyingSD
三沙卫视,https://live.goodiptv.club/api/cqyx.php?id=sanshaSD
青海卫视,https://live.goodiptv.club/api/cqyx.php?id=qinghaiSD
中国天气,https://live.goodiptv.club/api/cqyx.php?id=tianqiSD
北京纪实科教,https://live.goodiptv.club/api/cqyx.php?id=bjayjsSD
山东教育卫视,https://live.goodiptv.club/api/cqyx.php?id=sdjiaoyuSD
新疆卫视,https://live.goodiptv.club/api/cqyx.php?id=xinjiangSD
西藏卫视,https://live.goodiptv.club/api/cqyx.php?id=xizangSD
CGTN,https://live.goodiptv.club/api/cqyx.php?id=cgtnSD
CETV-1,https://live.goodiptv.club/api/cqyx.php?id=cetv-1SD
CETV-4,https://live.goodiptv.club/api/cqyx.php?id=cetv-4SD
生活时尚,https://live.goodiptv.club/api/cqyx.php?id=shenghuo
百姓健康,https://live.goodiptv.club/api/cqyx.php?id=jiankangSD
快乐垂钓,https://live.goodiptv.club/api/cqyx.php?id=klcdHD
第一剧场,https://live.goodiptv.club/api/cqyx.php?id=diyijuchangHD
都市剧场,https://live.goodiptv.club/api/cqyx.php?id=dsjcHD
动漫秀场,https://live.goodiptv.club/api/cqyx.php?id=dmxcHD
魅力足球,https://live.goodiptv.club/api/cqyx.php?id=mlzqHD
风云剧场,https://live.goodiptv.club/api/cqyx.php?id=fyjcHD
求索纪录,https://live.goodiptv.club/api/cqyx.php?id=qsjlHD
兵器科技,https://live.goodiptv.club/api/cqyx.php?id=bqkjHD
游戏风云,https://live.goodiptv.club/api/cqyx.php?id=yxfyHD
怀旧剧场,https://live.goodiptv.club/api/cqyx.php?id=hjjcHD
风云音乐,https://live.goodiptv.club/api/cqyx.php?id=fyyyHD
央视台球,https://live.goodiptv.club/api/cqyx.php?id=ystqHD
风云足球,https://live.goodiptv.club/api/cqyx.php?id=fyzqHD
央视文化精品,https://live.goodiptv.club/api/cqyx.php?id=yswhHD
高尔夫网球,https://live.goodiptv.club/api/cqyx.php?id=golfHD
早期教育,https://live.goodiptv.club/api/cqyx.php?id=zaojiaoHD
重庆新闻,https://live.goodiptv.club/api/cqyx.php?id=CQTVNewsHD
重庆影视,https://live.goodiptv.club/api/cqyx.php?id=cqyingshiHD
重庆社会与法,https://live.goodiptv.club/api/cqyx.php?id=CQTVTrendyHD
重庆时尚生活,https://live.goodiptv.club/api/cqyx.php?id=cqssgwHD
重庆文体娱乐,https://live.goodiptv.club/api/cqyx.php?id=cqwtylHD
重庆新农村,https://live.goodiptv.club/api/cqyx.php?id=cqggncHD
重庆少儿,https://live.goodiptv.club/api/cqyx.php?id=cqseHD
重庆科教,https://live.goodiptv.club/api/cqyx.php?id=CQTVkejiaoHD
爱看导视,https://live.goodiptv.club/api/cqyx.php?id=aikanHD
重庆汽摩,https://live.goodiptv.club/api/cqyx.php?id=cqcarSD
重庆移动,https://live.goodiptv.club/api/cqyx.php?id=mryyHD
重广融媒,https://live.goodiptv.club/api/cqyx.php?id=cqrongmei
优购物,https://live.goodiptv.club/api/cqyx.php?id=yougouwu
家家购物,https://live.goodiptv.club/api/cqyx.php?id=jjgw
风尚购物,https://live.goodiptv.club/api/cqyx.php?id=fsgw
聚鲨环球精选,https://live.goodiptv.club/api/cqyx.php?id=jusha
中视购物,https://live.goodiptv.club/api/cqyx.php?id=ysgw
家有购物,https://live.goodiptv.club/api/cqyx.php?id=jygw
央广购物,https://live.goodiptv.club/api/cqyx.php?id=yggw
东方财经,https://live.goodiptv.club/api/cqyx.php?id=dfcj
证券服务,https://live.goodiptv.club/api/cqyx.php?id=jiazheng
书画,https://live.goodiptv.club/api/cqyx.php?id=shuhua
新动漫,https://live.goodiptv.club/api/cqyx.php?id=dongman
国学频道,https://live.goodiptv.club/api/cqyx.php?id=guoxue
优优宝贝,https://live.goodiptv.club/api/cqyx.php?id=youxi
中华特产,https://live.goodiptv.club/api/cqyx.php?id=techan
环球奇观,https://live.goodiptv.club/api/cqyx.php?id=car
生态环境,https://live.goodiptv.club/api/cqyx.php?id=shengtai
四海钓鱼,https://live.goodiptv.club/api/cqyx.php?id=diaoyu
发现之旅,https://live.goodiptv.club/api/cqyx.php?id=faxian
车迷,https://live.goodiptv.club/api/cqyx.php?id=doxtv
法治天地,https://live.goodiptv.club/api/cqyx.php?id=fazhi
金色学堂,https://live.goodiptv.club/api/cqyx.php?id=jinse
收藏天下,https://live.goodiptv.club/api/cqyx.php?id=soucang
财富天下,https://live.goodiptv.club/api/cqyx.php?id=caifu
女性时尚,https://live.goodiptv.club/api/cqyx.php?id=nvxing
中学生,https://live.goodiptv.club/api/cqyx.php?id=qicai
天元围棋,https://live.goodiptv.club/api/cqyx.php?id=weiqi
先锋乒羽,https://live.goodiptv.club/api/cqyx.php?id=xianfeng
环球旅游,https://live.goodiptv.club/api/cqyx.php?id=huanqiulvyou
老故事,https://live.goodiptv.club/api/cqyx.php?id=gushi
摄影频道,https://live.goodiptv.club/api/cqyx.php?id=sheying
靓妆,https://live.goodiptv.club/api/cqyx.php?id=liang
肥羊YQGD,#genre#
4K60PSDR-H264-AAC测试,http://159.75.85.63:5680/d/ad/h264/playad.m3u8
4K60PHLG-HEVC-EAC3测试,http://159.75.85.63:5680/d/ad/playad.m3u8
CCTV1HD,https://live.goodiptv.club/api/yqgd.php?id=cctv1hd
CCTV2HD,https://live.goodiptv.club/api/yqgd.php?id=cctv2hd
CCTV3HD,https://live.goodiptv.club/api/yqgd.php?id=cctv3hd
CCTV4,https://live.goodiptv.club/api/yqgd.php?id=cctv4
CCTV5HD,https://live.goodiptv.club/api/yqgd.php?id=cctv5hd
CCTV5+HD,https://live.goodiptv.club/api/yqgd.php?id=cctv5p
CCTV6HD,https://live.goodiptv.club/api/yqgd.php?id=cctv6hd
CCTV7HD,https://live.goodiptv.club/api/yqgd.php?id=cctv7hd
CCTV8HD,https://live.goodiptv.club/api/yqgd.php?id=cctv8hd
CCTV9HD,https://live.goodiptv.club/api/yqgd.php?id=cctv9hd
CCTV10HD,https://live.goodiptv.club/api/yqgd.php?id=cctv10hd
CCTV11,https://live.goodiptv.club/api/yqgd.php?id=cctv11
CCTV12HD,https://live.goodiptv.club/api/yqgd.php?id=cctv12hd
CCTV13,https://live.goodiptv.club/api/yqgd.php?id=cctv13
CCTV14HD,https://live.goodiptv.club/api/yqgd.php?id=cctv14hd
CCTV15,https://live.goodiptv.club/api/yqgd.php?id=cctv15
CCTV16HD,https://live.goodiptv.club/api/yqgd.php?id=cctv16hd
CCTV17,https://live.goodiptv.club/api/yqgd.php?id=cctv17
CCTV兵器科技,https://live.goodiptv.club/api/yqgd.php?id=bqkj
CCTV怀旧剧场,https://live.goodiptv.club/api/yqgd.php?id=hjjc
CCTV第一剧场,https://live.goodiptv.club/api/yqgd.php?id=dyjc
CCTV风云剧场,https://live.goodiptv.club/api/yqgd.php?id=fyjc
CCTV风云音乐,https://live.goodiptv.club/api/yqgd.php?id=fyyy
CCTV风云足球,https://live.goodiptv.club/api/yqgd.php?id=fyzq
CCTV世界地理,https://live.goodiptv.club/api/yqgd.php?id=sjdl
CCTV央视文化精品,https://live.goodiptv.club/api/yqgd.php?id=whjp
CCTV卫生健康,https://live.goodiptv.club/api/yqgd.php?id=wsjk
中央新影－发现之旅,https://live.goodiptv.club/api/yqgd.php?id=fxzl
中央新影－老故事,https://live.goodiptv.club/api/yqgd.php?id=lgs
央广购物,https://live.goodiptv.club/api/yqgd.php?id=yggw
书画,https://live.goodiptv.club/api/yqgd.php?id=sh
CGTN,https://live.goodiptv.club/api/yqgd.php?id=cgtn
CETV1,https://live.goodiptv.club/api/yqgd.php?id=cetv1
CETV4,https://live.goodiptv.club/api/yqgd.php?id=cetv4
CHC高清电影,https://live.goodiptv.club/api/yqgd.php?id=chcgqdy
CHC动作电影,https://live.goodiptv.club/api/yqgd.php?id=chcdzdy
CHC动作电影2,https://live.goodiptv.club/api/yqgd.php?id=chdzdy2
CHC家庭影院,https://live.goodiptv.club/api/yqgd.php?id=chcjtyy
CHC家庭影院2,https://live.goodiptv.club/api/yqgd.php?id=chcjtyy2
北京卫视HD,https://live.goodiptv.club/api/yqgd.php?id=bjwshd
东方卫视HD,https://live.goodiptv.club/api/yqgd.php?id=dfwshd
天津卫视HD,https://live.goodiptv.club/api/yqgd.php?id=tjwshd
重庆卫视HD,https://live.goodiptv.club/api/yqgd.php?id=cqwshd
黑龙江卫视HD,https://live.goodiptv.club/api/yqgd.php?id=hljwshd
吉林卫视HD,https://live.goodiptv.club/api/yqgd.php?id=jlwshd
辽宁卫视HD,https://live.goodiptv.club/api/yqgd.php?id=lnwshd
内蒙古卫视,https://live.goodiptv.club/api/yqgd.php?id=nmws
宁夏卫视,https://live.goodiptv.club/api/yqgd.php?id=nxws
甘肃卫视,https://live.goodiptv.club/api/yqgd.php?id=gsws
青海卫视,https://live.goodiptv.club/api/yqgd.php?id=qhws
河北卫视HD,https://live.goodiptv.club/api/yqgd.php?id=hbwshd
山西卫视HD,https://live.goodiptv.club/api/yqgd.php?id=sxiwshd
山东卫视HD,https://live.goodiptv.club/api/yqgd.php?id=sdwshd
安徽卫视HD,https://live.goodiptv.club/api/yqgd.php?id=ahwshd
湖北卫视HD,https://live.goodiptv.club/api/yqgd.php?id=hubwshd
湖南卫视HD,https://live.goodiptv.club/api/yqgd.php?id=hunwshd
江西卫视HD,https://live.goodiptv.club/api/yqgd.php?id=jxwshd
江苏卫视HD,https://live.goodiptv.club/api/yqgd.php?id=jswshd
浙江卫视HD,https://live.goodiptv.club/api/yqgd.php?id=zjwshd
东南卫视,https://live.goodiptv.club/api/yqgd.php?id=dnws
广东卫视,https://live.goodiptv.club/api/yqgd.php?id=gdws
深圳卫视HD,https://live.goodiptv.club/api/yqgd.php?id=szwshd
广西卫视,https://live.goodiptv.club/api/yqgd.php?id=gxws
云南卫视,https://live.goodiptv.club/api/yqgd.php?id=ynws
贵州卫视,https://live.goodiptv.club/api/yqgd.php?id=gzws
四川卫视HD,https://live.goodiptv.club/api/yqgd.php?id=scwshd
新疆卫视,https://live.goodiptv.club/api/yqgd.php?id=xjws
兵团卫视,https://live.goodiptv.club/api/yqgd.php?id=btws
西藏卫视,https://live.goodiptv.club/api/yqgd.php?id=xzws
海南卫视,https://live.goodiptv.club/api/yqgd.php?id=hinws
卡酷少儿,https://live.goodiptv.club/api/yqgd.php?id=kkse
环球奇观,https://live.goodiptv.club/api/yqgd.php?id=hqqg
DOXTV,https://live.goodiptv.club/api/yqgd.php?id=doxtv
都市剧场,https://live.goodiptv.club/api/yqgd.php?id=dsjc
法治天地,https://live.goodiptv.club/api/yqgd.php?id=fztd
劲爆体育HD,https://live.goodiptv.club/api/yqgd.php?id=jbtyhd
极速汽车HD,https://live.goodiptv.club/api/yqgd.php?id=jsqchd
乐游HD,https://live.goodiptv.club/api/yqgd.php?id=lyhd
生活时尚,https://live.goodiptv.club/api/yqgd.php?id=shss
金色学堂,https://live.goodiptv.club/api/yqgd.php?id=jsxt
魅力足球HD,https://live.goodiptv.club/api/yqgd.php?id=mlzqhd
幸福彩,https://live.goodiptv.club/api/yqgd.php?id=xfc
汽摩,https://live.goodiptv.club/api/yqgd.php?id=qm
家庭理财,https://live.goodiptv.club/api/yqgd.php?id=jtlc
游戏竞技,https://live.goodiptv.club/api/yqgd.php?id=yxjj
网络棋牌,https://live.goodiptv.club/api/yqgd.php?id=wlqp
山西公共青运,https://live.goodiptv.club/api/yqgd.php?id=sxggqy
山西经济与科教,https://live.goodiptv.club/api/yqgd.php?id=sxjjkj
山西社会与法治,https://live.goodiptv.club/api/yqgd.php?id=sxshfz
山西文体生活,https://live.goodiptv.club/api/yqgd.php?id=sxwtsh
山西影视,https://live.goodiptv.club/api/yqgd.php?id=sxys
山西黄河,https://live.goodiptv.club/api/yqgd.php?id=sxhh
山西导视,https://live.goodiptv.club/api/yqgd.php?id=sxds
阳泉新闻综合HD,https://live.goodiptv.club/api/yqgd.php?id=yqxwzhhd
阳泉科教HD,https://live.goodiptv.club/api/yqgd.php?id=yqkjhd
收藏天下,https://live.goodiptv.club/api/yqgd.php?id=sctx
山东教育卫视,https://live.goodiptv.club/api/yqgd.php?id=sdjy
国学频道,https://live.goodiptv.club/api/yqgd.php?id=gxpd
茶频道,https://live.goodiptv.club/api/yqgd.php?id=cpd
金鹰卡通,https://live.goodiptv.club/api/yqgd.php?id=jykt
快乐垂钓,https://live.goodiptv.club/api/yqgd.php?id=klcd
先锋乒羽,https://live.goodiptv.club/api/yqgd.php?id=xfpy
财富天下,https://live.goodiptv.club/api/yqgd.php?id=cftx
靓妆,https://live.goodiptv.club/api/yqgd.php?id=lz
优漫卡通,https://live.goodiptv.club/api/yqgd.php?id=ymkt
摄影频道,https://live.goodiptv.club/api/yqgd.php?id=sypd
精品,#genre#
北京冬奥,http://dbiptv.sn.chinamobile.com/PLTV/88888890/224/3221226232/index.m3u8
纪实人文,http://dbiptv.sn.chinamobile.com/PLTV/88888890/224/3221226230/index.m3u8
求索纪录,http://39.134.66.110/PLTV/88888888/224/3221225713/index.m3u8
黑莓电影,http://39.134.66.110/PLTV/88888888/224/3221225681/index.m3u8
黑莓动画,http://39.134.66.110/PLTV/88888888/224/3221225529/index.m3u8
爱情喜剧,http://39.134.66.110/PLTV/88888888/224/3221225533/index.m3u8
超级电视剧,http://39.134.66.110/PLTV/88888888/224/3221225637/index.m3u8
超级电影,http://39.134.66.110/PLTV/88888888/224/3221225644/index.m3u8
超级体育,http://39.134.66.110/PLTV/88888888/224/3221225635/index.m3u8
超级综艺,http://39.134.66.110/PLTV/88888888/224/3221225642/index.m3u8
潮妈辣婆,http://39.134.66.110/PLTV/88888888/224/3221225542/index.m3u8
东北热剧,http://39.134.66.110/PLTV/88888888/224/3221225679/index.m3u8
北京冬奥,http://39.134.66.110/PLTV/88888888/224/3221225670/index.m3u8
动作电影,http://39.134.66.110/PLTV/88888888/224/3221225555/index.m3u8
古装剧场,http://39.134.66.110/PLTV/88888888/224/3221225524/index.m3u8
欢乐剧场,http://39.134.66.110/PLTV/88888888/224/3221225682/index.m3u8
纪实人文,http://39.134.66.110/PLTV/88888888/224/3221225673/index.m3u8
家庭剧场,http://39.134.66.110/PLTV/88888888/224/3221225538/index.m3u8
金牌综艺,http://39.134.66.110/PLTV/88888888/224/3221225525/index.m3u8
惊悚悬疑,http://39.134.66.110/PLTV/88888888/224/3221225553/index.m3u8
精品大剧,http://39.134.66.110/PLTV/88888888/224/3221225536/index.m3u8
精品纪录,http://39.134.66.110/PLTV/88888888/224/3221225545/index.m3u8
精品体育,http://39.134.66.110/PLTV/88888888/224/3221225526/index.m3u8
军旅剧场,http://39.134.66.110/PLTV/88888888/224/3221225560/index.m3u8
军事评论,http://39.134.66.110/PLTV/88888888/224/3221225535/index.m3u8
农业致富,http://39.134.66.110/PLTV/88888888/224/3221225552/index.m3u8
武搏世界,http://39.134.66.110/PLTV/88888888/224/3221225547/index.m3u8
炫舞未来,http://39.134.66.110/PLTV/88888888/224/3221225646/index.m3u8
中国功夫,http://39.134.66.110/PLTV/88888888/224/3221225604/index.m3u8
金马影院,http://hpull.kktv8.com/livekktv/128600025/playlist.m3u8
足球频道,https://nmglive.imfc.cn/5n1r1c/182396.m3u8
NewTV,#genre#
NewTV超级体育,http://39.134.66.66/PLTV/88888888/224/3221225635/index.m3u8
NewTV超级体育,http://39.135.138.59:18890/PLTV/88888910/224/3221225622/index.m3u8
NewTV超级体育,http://39.135.138.59:18890/PLTV/88888910/224/3221225648/index.m3u8
NewTV超级体育,http://39.135.138.60:18890/PLTV/88888910/224/3221225767/index.m3u8
NewTV超级体育,http://ottrrs.hl.chinamobile.com/PLTV/88888888/224/3221225715/index.m3u8
NewTV超级综艺,http://39.134.66.66/PLTV/88888888/224/3221225642/index.m3u8
NewTV超级综艺,http://39.135.138.59:18890/PLTV/88888910/224/3221225768/index.m3u8
NewTV超级综艺,http://39.135.138.60:18890/PLTV/88888910/224/3221225620/index.m3u8
NewTV超级综艺,http://ottrrs.hl.chinamobile.com/PLTV/88888888/224/3221225714/index.m3u8
NewTV潮妈辣婆,http://39.134.66.66/PLTV/88888888/224/3221225542/index.m3u8
NewTV潮妈辣婆,http://ottrrs.hl.chinamobile.com/PLTV/88888888/224/3221225685/index.m3u8
NewTV东北热剧,http://39.135.135.35:80/wh7f454c46tw1751026922_1159821621/ottrrs.hl.chinamobile.com/PLTV/88888888/224/3221225741/index.m3u8?icpid=88888888&RTS=1554599523&from=1&hms_devid=691
NewTV东北热剧,http://ottrrs.hl.chinamobile.com/PLTV/88888888/224/3221225741/index.m3u8
NewTV动作电影,http://ottrrs.hl.chinamobile.com/PLTV/88888888/224/3221225661/index.m3u8
NewTV古装剧场,http://39.134.66.66/PLTV/88888888/224/3221225524/index.m3u8
NewTV古装剧场,http://39.135.138.60:18890/PLTV/88888910/224/3221225678/index.m3u8
NewTV古装剧场,http://ottrrs.hl.chinamobile.com/PLTV/88888888/224/3221225663/index.m3u8
NewTV海外剧场,http://ottrrs.hl.chinamobile.com/PLTV/88888888/224/3221225671/index.m3u8
NewTV欢乐剧场,http://39.135.135.81:80/wh7f454c46tw1744894462_1818032107/ottrrs.hl.chinamobile.com/PLTV/88888888/224/3221225742/index.m3u8?icpid=88888888&RTS=1554599517&from=1&hms_devid=690
NewTV欢乐剧场,http://ottrrs.hl.chinamobile.com/PLTV/88888888/224/3221225742/index.m3u8
NewTV家庭剧场,http://39.134.66.66/PLTV/88888888/224/3221225538/index.m3u8
NewTV家庭剧场,http://ottrrs.hl.chinamobile.com/PLTV/88888888/224/3221225677/index.m3u8
NewTV金牌综艺,http://39.134.66.66/PLTV/88888888/224/3221225525/index.m3u8
NewTV金牌综艺,http://39.135.138.59:18890/PLTV/88888910/224/3221225711/index.m3u8
NewTV惊悚悬疑,http://39.134.66.66/PLTV/88888888/224/3221225553/index.m3u8
NewTV惊悚悬疑,http://ottrrs.hl.chinamobile.com/PLTV/88888888/224/3221225665/index.m3u8
NewTV精品大剧,http://39.134.66.66/PLTV/88888888/224/3221225536/index.m3u8
NewTV精品大剧,http://39.135.138.60:18890/PLTV/88888910/224/3221225714/index.m3u8
NewTV精品大剧,http://ottrrs.hl.chinamobile.com/PLTV/88888888/224/3221225670/index.m3u8
NewTV精品纪录,http://39.134.66.66/PLTV/88888888/224/3221225545/index.m3u8
NewTV精品纪录,http://39.135.138.60:18890/PLTV/88888910/224/3221225710/index.m3u8
NewTV精品纪录,http://ottrrs.hl.chinamobile.com/PLTV/88888888/224/3221225672/index.m3u8
NewTV精品体育,http://39.134.66.66/PLTV/88888888/224/3221225526/index.m3u8
NewTV精品体育,http://39.135.138.60:18890/PLTV/88888910/224/3221225709/index.m3u8
NewTV军旅剧场,http://39.134.66.66/PLTV/88888888/224/3221225560/index.m3u8
NewTV军旅剧场,http://39.135.138.59:18890/PLTV/88888910/224/3221225669/index.m3u8
NewTV军旅剧场,http://gslbserv.itv.cmvideo.cn:80/000000001000/7485075951068666323/1.m3u8?channel-id=ystenlive&Contentid=7485075951068666323&livemode=1&stbId=003901FF0001181003FC08A5C8C6C037&userToken=85a5a98cdcab4d800a8ec29a9d917e8d10vv&usergroup=g10045200000&version=1.0&owaccmark=7485075951068666323&owchid=ystenlive&owsid=7951969344461285239
NewTV军旅剧场,http://ottrrs.hl.chinamobile.com/PLTV/88888888/224/3221225676/index.m3u8
NewTV军事评论,http://39.134.66.66/PLTV/88888888/224/3221225535/index.m3u8
NewTV军事评论,http://ottrrs.hl.chinamobile.com/PLTV/88888888/224/3221225668/index.m3u8
NewTV明星大片,http://39.134.66.66/PLTV/88888888/224/3221225550/index.m3u8
NewTV明星大片,http://39.135.138.59:18890/PLTV/88888910/224/3221225716/index.m3u8
NewTV明星大片,http://gslbserv.itv.cmvideo.cn:80/000000001000/5595720619887440144/1.m3u8?channel-id=ystenlive&Contentid=5595720619887440144&livemode=1&stbId=003901FF0001181003FC08A5C8C6C037&userToken=85a5a98cdcab4d800a8ec29a9d917e8d10vv&usergroup=g10045200000&version=1.0&owaccmark=5595720619887440144&owchid=ystenlive&owsid=7951969344461437044
NewTV明星大片,http://ottrrs.hl.chinamobile.com/PLTV/88888888/224/3221225664/index.m3u8
NewTV农业致富,http://39.134.66.66/PLTV/88888888/224/3221225552/index.m3u8
NewTV农业致富,http://39.135.138.59:18890/PLTV/88888910/224/3221225670/index.m3u8
NewTV农业致富,http://ottrrs.hl.chinamobile.com/PLTV/88888888/224/3221225683/index.m3u8
NewTV武搏世界,http://39.134.66.66/PLTV/88888888/224/3221225547/index.m3u8
NewTV武搏世界,http://ottrrs.hl.chinamobile.com/PLTV/88888888/224/3221225680/index.m3u8
NewTV炫舞未来,http://39.134.66.66/PLTV/88888888/224/3221225646/index.m3u8
NewTV炫舞未来,http://39.135.138.59:18890/PLTV/88888910/224/3221225707/index.m3u8
NewTV炫舞未来,http://ottrrs.hl.chinamobile.com/PLTV/88888888/224/3221225719/index.m3u8
NewTV怡伴健康,http://39.134.66.66/PLTV/88888888/224/3221225571/index.m3u8
NewTV怡伴健康,http://ottrrs.hl.chinamobile.com/PLTV/88888888/224/3221225673/index.m3u8
NewTV中国功夫,http://39.134.66.66/PLTV/88888888/224/3221225604/index.m3u8
NewTV中国功夫,http://39.135.138.60:18890/PLTV/88888910/224/3221225660/index.m3u8
NewTV中国功夫,http://ottrrs.hl.chinamobile.com/PLTV/88888888/224/3221225681/index.m3u8
黑莓电竞,http://39.134.66.66/PLTV/88888888/224/3221225559/index.m3u8
黑莓电竞,http://39.135.138.60:18890/PLTV/88888910/224/3221225653/index.m3u8
黑莓电影,http://39.135.138.60:18890/PLTV/88888910/224/3221225718/index.m3u8
黑莓电影,http://gslbserv.itv.cmvideo.cn:80/000000001000/8785669936177902664/1.m3u8?channel-id=ystenlive&Contentid=8785669936177902664&livemode=1&stbId=003901FF0001181003FC08A5C8C6C037&userToken=85a5a98cdcab4d800a8ec29a9d917e8d10vv&usergroup=g10045200000&version=1.0&owaccmark=8785669936177902664&owchid=ystenlive&owsid=7951969344461621383
黑莓动画,http://39.134.66.66/PLTV/88888888/224/3221225529/index.m3u8
黑莓动画,http://39.135.138.59:18890/PLTV/88888910/224/3221225672/index.m3u8
求索动物,http://39.134.66.66/PLTV/88888888/224/3221225730/index.m3u8
求索纪录,http://39.134.66.66/PLTV/88888888/224/3221225713/index.m3u8
求索科学,http://39.134.66.66/PLTV/88888888/224/3221225728/index.m3u8
求索生活,http://39.134.66.66/PLTV/88888888/224/3221225715/index.m3u8
优漫卡通,http://39.135.138.59:18890/PLTV/88888910/224/3221225665/index.m3u8
金鹰卡通,http://39.135.138.59:18890/PLTV/88888910/224/3221225721/index.m3u8
卡酷少儿,http://39.135.138.60:18890/PLTV/88888910/224/3221225677/index.m3u8
都市剧场,http://183.207.255.188/live/program/live/dsjchd/4000000/mnf.m3u8
动漫秀场,http://183.207.255.188/live/program/live/dmxchd/4000000/mnf.m3u8
游戏风云,http://183.207.255.188/live/program/live/yxfyhd/4000000/mnf.m3u8
生活时尚,http://183.207.255.188/live/program/live/shsshd/4000000/mnf.m3u8
全纪实,http://183.207.255.188/live/program/live/qjshd/4000000/mnf.m3u8
超级体育,http://39.135.138.58:18890/PLTV/88888888/224/3221225622/index.m3u8?blog.ntnas.top
超级综艺,http://39.135.138.58:18890/PLTV/88888888/224/3221225620/index.m3u8?blog.ntnas.top
东北热剧,http://39.135.138.58:18890/PLTV/88888888/224/3221226202/index.m3u8?blog.ntnas.top
欢乐剧场,http://39.135.138.58:18890/PLTV/88888888/224/3221226210/index.m3u8?blog.ntnas.top
炫舞未来,http://39.135.138.58:18890/PLTV/88888888/224/3221225707/index.m3u8?blog.ntnas.top
CHC动作电影,http://111.20.45.162/dbiptv.sn.chinamobile.com/PLTV/88888890/224/3221226465/index.m3u8
CHC动作电影,http://39.134.18.66/dbiptv.sn.chinamobile.com/PLTV/88888888/224/3221226465/1.m3u8
CHC动作电影,http://39.134.19.228:6610/yinhe/2/ch00000090990000002055/index.m3u8?virtualDomain=yinhe.live_hls.zte.com
CHC动作电影,http://dbiptv.sn.chinamobile.com/PLTV/88888890/224/3221226465/index.m3u8
CHC高清电影,http://111.20.105.60:6060/yinhe/2/ch00000090990000002065/index.m3u8?virtualDomain=yinhe.live_hls.zte.com
CHC高清电影,http://111.20.105.60:6060/yinhe/2/ch00000090990000002065?virtualDomain=yinhe.live_hls.zte.com
CHC高清电影,http://39.134.18.65/dbiptv.sn.chinamobile.com/PLTV/88888890/224/3221226463/index.m3u8
CHC高清电影,http://39.134.18.66/dbiptv.sn.chinamobile.com/PLTV/88888890/224/3221226463/index.m3u8
CHC高清电影,http://39.134.18.68/dbiptv.sn.chinamobile.com/PLTV/88888888/224/3221226463/1.m3u8
CHC高清电影,http://39.134.18.69/dbiptv.sn.chinamobile.com/PLTV/88888888/224/3221226463/1.m3u8
CHC高清电影,http://dbiptv.sn.chinamobile.com/PLTV/88888890/224/3221226463/index.m3u8
CHC家庭影院,http://111.20.105.60:6060/yinhe/2/ch00000090990000002085/index.m3u8?virtualDomain=yinhe.live_hls.zte.com
CHC家庭影院,http://111.20.105.60:6060/yinhe/2/ch00000090990000002085?virtualDomain=yinhe.live_hls.zte.com
CHC家庭影院,http://39.134.18.65/dbiptv.sn.chinamobile.com/PLTV/88888888/224/3221226462/1.m3u8
CHC家庭影院,http://39.134.18.68/dbiptv.sn.chinamobile.com/PLTV/88888890/224/3221226462/index.m3u8
CHC家庭影院,http://39.134.19.228:6610/yinhe/2/ch00000090990000002085/index.m3u8?virtualDomain=yinhe.live_hls.zte.com
CHC家庭影院,http://dbiptv.sn.chinamobile.com/PLTV/88888890/224/3221226462/index.m3u8
北京冬奥,http://ottrrs.hl.chinamobile.com/PLTV/88888888/224/3221225729/index.m3u8
央视台球,http://39.134.19.246:6610/yinhe/2/ch00000090990000001669/index.m3u8?virtualDomain=yinhe.live_hls.zte.com
咪咕视频,http://39.134.66.66/PLTV/88888888/224/3221225613/index.m3u8
百视通体育,http://dbiptv.sn.chinamobile.com/PLTV/88888890/224/3221225847/index.m3u8
百视通体育,http://dbiptv.sn.chinamobile.com/PLTV/88888890/224/3221225834/index.m3u8
地方,#genre#
北京冬奥,http://39.135.138.58:18890/PLTV/88888888/224/3221225676/index.m3u8
北京冬奥,http://39.135.138.59:18890/PLTV/88888910/224/3221225675/index.m3u8
北京冬奥,http://39.135.138.60:18890/PLTV/88888910/224/3221225676/index.m3u8
吉林影视,http://stream1.jlntv.cn/yspd/sd/live.m3u8
吉林乡村,http://stream1.jlntv.cn/xcpd/sd/live.m3u8
晋中公共,http://jzlive.jztvnews.com:90/live/jzgg.m3u8
晋中综合,http://jzlive.jztvnews.com:90/live/jzzh.m3u8
上海纪实人文,http://39.135.138.59:18890/PLTV/88888910/224/3221225655/index.m3u8
上海纪实人文,http://39.135.138.60:18890/PLTV/88888910/224/3221225654/index.m3u8
西安新闻,http://stream2.xiancity.cn/xatv1/sd/live.m3u8
西安新闻综合,http://stream2.xiancity.cn/xatv1/playlist.m3u8
浙江国际,http://hw-m-l.cztv.com/channels/lantian/channel010/1080p.m3u8
浙江国际,http://hw-m-l.cztv.com/channels/lantian/channel10/1080p.m3u8
浙江教育台,http://hw-m-l.cztv.com/channels/lantian/channel004/1080p.m3u8
浙江教育台,http://hw-m-l.cztv.com/channels/lantian/channel04/1080p.m3u8
浙江经济生活,http://hw-m-l.cztv.com/channels/lantian/channel003/1080p.m3u8
浙江经济生活,http://hw-m-l.cztv.com/channels/lantian/channel03/1080p.m3u8
浙江留学,http://hw-m-l.cztv.com/channels/lantian/channel09/1080p.m3u8
浙江龙泉,http://l.cztvcloud.com/channels/lantian/SXlongquan1/720p.m3u8
浙江民生休闲,http://hw-m-l.cztv.com/channels/lantian/channel06/1080p.m3u8
浙江民生休闲,http://hw-m-l.cztv.com/channels/lantian/channel06/720p.m3u8
浙江钱江频道,http://hw-m-l.cztv.com/channels/lantian/channel002/1080p.m3u8
浙江钱江台,http://hw-m-l.cztv.com/channels/lantian/channel02/1080p.m3u8
浙江青田,http://l.cztvcloud.com/channels/lantian/SXqingtian1/720p.m3u8
浙江少儿,http://hw-m-l.cztv.com/channels/lantian/channel08/1080p.m3u8
浙江数码时代,http://hw-m-l.cztv.com/channels/lantian/channel012/1080p.m3u8
浙江松阳,http://l.cztvcloud.com/channels/lantian/SXsongyang1/720p.m3u8
浙江遂昌,http://l.cztvcloud.com/channels/lantian/SXsuichang1/720p.m3u8
浙江卫视,http://hw-m-l.cztv.com/channels/lantian/channel01/1080p.m3u8
浙江新闻,http://hw-m-l.cztv.com/channels/lantian/channel007/1080p.m3u8
浙江新闻,http://hw-m-l.cztv.com/channels/lantian/channel07/1080p.m3u8
浙江休闲台,http://hw-m-l.cztv.com/channels/lantian/channel006/1080p.m3u8
浙江少儿,http://hw-m-l.cztv.com/channels/lantian/channel008/1080p.m3u8

